<?xml version="1.0" encoding="UTF-8" standalone="no"?>
<svg
   xmlns:dc="http://purl.org/dc/elements/1.1/"
   xmlns:cc="http://creativecommons.org/ns#"
   xmlns:rdf="http://www.w3.org/1999/02/22-rdf-syntax-ns#"
   xmlns:svg="http://www.w3.org/2000/svg"
   xmlns="http://www.w3.org/2000/svg"
   xmlns:sodipodi="http://sodipodi.sourceforge.net/DTD/sodipodi-0.dtd"
   xmlns:inkscape="http://www.inkscape.org/namespaces/inkscape"
   width="1024"
   height="1024"
   viewBox="0 0 1024 1024"
   fill="none"
   version="1.1"
   id="svg200"
   sodipodi:docname="icon-launcher-geolocation1024.svg"
   inkscape:version="0.92.5 (2060ec1f9f, 2020-04-08)">
  <metadata
     id="metadata204">
    <rdf:RDF>
      <cc:Work
         rdf:about="">
        <dc:format>image/svg+xml</dc:format>
        <dc:type
           rdf:resource="http://purl.org/dc/dcmitype/StillImage" />
      </cc:Work>
    </rdf:RDF>
  </metadata>
  <sodipodi:namedview
     pagecolor="#ffffff"
     bordercolor="#666666"
     borderopacity="1"
     objecttolerance="10"
     gridtolerance="10"
     guidetolerance="10"
     inkscape:pageopacity="0"
     inkscape:pageshadow="2"
     inkscape:window-width="2464"
     inkscape:window-height="1399"
     id="namedview202"
     showgrid="false"
     inkscape:zoom="0.23046875"
     inkscape:cx="512"
     inkscape:cy="512"
     inkscape:window-x="1376"
     inkscape:window-y="0"
     inkscape:window-maximized="1"
     inkscape:current-layer="svg200" />
  <g
     clip-path="url(#clip0_78_698)"
     id="g32"
     transform="matrix(1.0046692,0,0,1.004671,-2.3901079,-2.3919508)">
    <path
       d="m 665.777,2.38084 c 179.616,1e-5 244.24,1e-5 300.04,55.79956 55.803,55.7996 55.803,120.4236 55.803,325.2236 v 257.191 c 0,204.8 0,269.424 -55.803,325.223 -55.8,55.802 -120.424,55.802 -325.224,55.802 H 383.402 c -204.8,0 -269.424,0 -325.2234,-55.802 C 2.37902,910.019 2.37899,845.395 2.379,640.595 l 1e-5,-257.191 C 2.37902,178.604 2.37905,113.98 58.1786,58.1804 113.978,2.38082 178.602,2.38082 383.402,2.38083 Z"
       id="path2"
       style="fill:url(#paint0_radial_78_698)"
       inkscape:connector-curvature="0" />
    <g
       id="g6"
       style="filter:url(#filter0_d_78_698)">
      <path
         d="m 447.429,204.71 c 9.3,-9.3 24.378,-9.3 33.678,0 l 84.195,84.195 -101.034,101.034 -84.195,-84.195 c -9.3,-9.3 -9.3,-24.378 0,-33.678 z"
         id="path4"
         style="fill:url(#paint1_linear_78_698);shape-rendering:crispEdges"
         inkscape:connector-curvature="0" />
    </g>
    <g
       id="g10"
       style="filter:url(#filter1_d_78_698)">
      <path
         d="m 674.754,246.807 c 9.3,-9.3 24.378,-9.3 33.678,0 l 67.356,67.356 c 9.3,9.3 9.3,24.378 0,33.678 L 742.11,381.519 641.076,280.485 Z"
         id="path8"
         style="fill:url(#paint2_linear_78_698);shape-rendering:crispEdges"
         inkscape:connector-curvature="0" />
    </g>
    <g
       id="g14"
       style="filter:url(#filter2_d_78_698)">
      <circle
         cx="346.396"
         cy="676.20099"
         r="59.534901"
         transform="rotate(45,346.396,676.201)"
         id="circle12"
         style="fill:url(#paint3_linear_78_698);shape-rendering:crispEdges" />
    </g>
    <g
       id="g18"
       style="filter:url(#filter3_d_78_698)">
      <rect
         x="607.396"
         y="246.80701"
         width="238.14"
         height="261.953"
         rx="23.813999"
         transform="rotate(45,607.396,246.807)"
         id="rect16"
         style="fill:url(#paint4_linear_78_698);shape-rendering:crispEdges" />
    </g>
    <g
       id="g22"
       style="filter:url(#filter4_d_78_698)">
      <path
         d="m 750.536,642.523 c -9.3,9.3 -24.378,9.3 -33.678,0 l -84.195,-84.195 101.034,-101.034 84.195,84.195 c 9.3,9.3 9.3,24.378 0,33.678 z"
         id="path20"
         style="fill:url(#paint5_linear_78_698);shape-rendering:crispEdges"
         inkscape:connector-curvature="0" />
    </g>
    <g
       id="g26"
       style="filter:url(#filter5_d_78_698)">
      <path
         d="m 564.168,742.495 c -8.002,10.438 -23.212,10.388 -32.512,1.088 C 482.213,694.14 405.338,617.265 405.338,617.265 v 0 c 0,0 -78.858,-78.859 -126.317,-126.317 -9.3,-9.3 -9.351,-24.511 1.088,-32.512 75.257,-57.685 186.937,-48.888 259.942,24.117 73.004,73.005 81.802,184.685 24.117,259.942 z"
         id="path24"
         style="fill:url(#paint6_radial_78_698);shape-rendering:crispEdges"
         inkscape:connector-curvature="0" />
    </g>
    <g
       id="g30"
       style="filter:url(#filter6_i_78_698)">
      <circle
         cx="512"
         cy="512"
         r="416.74399"
         id="circle28"
         style="fill:url(#paint7_radial_78_698)" />
    </g>
  </g>
  <defs
     id="defs198">
    <filter
       id="filter0_d_78_698"
       x="349.284"
       y="173.921"
       width="287.46"
       height="287.46"
       filterUnits="userSpaceOnUse"
       color-interpolation-filters="sRGB">
      <feFlood
         flood-opacity="0"
         result="BackgroundImageFix"
         id="feFlood34" />
      <feColorMatrix
         in="SourceAlpha"
         type="matrix"
         values="0 0 0 0 0 0 0 0 0 0 0 0 0 0 0 0 0 0 127 0"
         result="hardAlpha"
         id="feColorMatrix36" />
      <feOffset
         dx="23.814"
         dy="23.814"
         id="feOffset38" />
      <feGaussianBlur
         stdDeviation="23.814"
         id="feGaussianBlur40" />
      <feComposite
         in2="hardAlpha"
         operator="out"
         id="feComposite42" />
      <feColorMatrix
         type="matrix"
         values="0 0 0 0 0.0980392 0 0 0 0 0.258824 0 0 0 0 0.584314 0 0 0 0.4 0"
         id="feColorMatrix44" />
      <feBlend
         mode="normal"
         in2="BackgroundImageFix"
         result="effect1_dropShadow_78_698"
         id="feBlend46" />
      <feBlend
         mode="normal"
         in="SourceGraphic"
         in2="effect1_dropShadow_78_698"
         result="shape"
         id="feBlend48" />
    </filter>
    <filter
       id="filter1_d_78_698"
       x="617.262"
       y="216.018"
       width="236.942"
       height="236.943"
       filterUnits="userSpaceOnUse"
       color-interpolation-filters="sRGB">
      <feFlood
         flood-opacity="0"
         result="BackgroundImageFix"
         id="feFlood51" />
      <feColorMatrix
         in="SourceAlpha"
         type="matrix"
         values="0 0 0 0 0 0 0 0 0 0 0 0 0 0 0 0 0 0 127 0"
         result="hardAlpha"
         id="feColorMatrix53" />
      <feOffset
         dx="23.814"
         dy="23.814"
         id="feOffset55" />
      <feGaussianBlur
         stdDeviation="23.814"
         id="feGaussianBlur57" />
      <feComposite
         in2="hardAlpha"
         operator="out"
         id="feComposite59" />
      <feColorMatrix
         type="matrix"
         values="0 0 0 0 0.0980392 0 0 0 0 0.258824 0 0 0 0 0.584314 0 0 0 0.4 0"
         id="feColorMatrix61" />
      <feBlend
         mode="normal"
         in2="BackgroundImageFix"
         result="effect1_dropShadow_78_698"
         id="feBlend63" />
      <feBlend
         mode="normal"
         in="SourceGraphic"
         in2="effect1_dropShadow_78_698"
         result="shape"
         id="feBlend65" />
    </filter>
    <filter
       id="filter2_d_78_698"
       x="263.046"
       y="592.852"
       width="214.326"
       height="214.326"
       filterUnits="userSpaceOnUse"
       color-interpolation-filters="sRGB">
      <feFlood
         flood-opacity="0"
         result="BackgroundImageFix"
         id="feFlood68" />
      <feColorMatrix
         in="SourceAlpha"
         type="matrix"
         values="0 0 0 0 0 0 0 0 0 0 0 0 0 0 0 0 0 0 127 0"
         result="hardAlpha"
         id="feColorMatrix70" />
      <feOffset
         dx="23.814"
         dy="23.814"
         id="feOffset72" />
      <feGaussianBlur
         stdDeviation="23.814"
         id="feGaussianBlur74" />
      <feComposite
         in2="hardAlpha"
         operator="out"
         id="feComposite76" />
      <feColorMatrix
         type="matrix"
         values="0 0 0 0 0.0980392 0 0 0 0 0.258824 0 0 0 0 0.584314 0 0 0 0.4 0"
         id="feColorMatrix78" />
      <feBlend
         mode="normal"
         in2="BackgroundImageFix"
         result="effect1_dropShadow_78_698"
         id="feBlend80" />
      <feBlend
         mode="normal"
         in="SourceGraphic"
         in2="effect1_dropShadow_78_698"
         result="shape"
         id="feBlend82" />
    </filter>
    <filter
       id="filter3_d_78_698"
       x="384.402"
       y="232.857"
       width="429.147"
       height="429.147"
       filterUnits="userSpaceOnUse"
       color-interpolation-filters="sRGB">
      <feFlood
         flood-opacity="0"
         result="BackgroundImageFix"
         id="feFlood85" />
      <feColorMatrix
         in="SourceAlpha"
         type="matrix"
         values="0 0 0 0 0 0 0 0 0 0 0 0 0 0 0 0 0 0 127 0"
         result="hardAlpha"
         id="feColorMatrix87" />
      <feOffset
         dy="23.814"
         id="feOffset89" />
      <feGaussianBlur
         stdDeviation="23.814"
         id="feGaussianBlur91" />
      <feComposite
         in2="hardAlpha"
         operator="out"
         id="feComposite93" />
      <feColorMatrix
         type="matrix"
         values="0 0 0 0 0.0980392 0 0 0 0 0.258824 0 0 0 0 0.584314 0 0 0 0.4 0"
         id="feColorMatrix95" />
      <feBlend
         mode="normal"
         in2="BackgroundImageFix"
         result="effect1_dropShadow_78_698"
         id="feBlend97" />
      <feBlend
         mode="normal"
         in="SourceGraphic"
         in2="effect1_dropShadow_78_698"
         result="shape"
         id="feBlend99" />
    </filter>
    <filter
       id="filter4_d_78_698"
       x="608.849"
       y="433.48"
       width="287.46"
       height="287.46"
       filterUnits="userSpaceOnUse"
       color-interpolation-filters="sRGB">
      <feFlood
         flood-opacity="0"
         result="BackgroundImageFix"
         id="feFlood102" />
      <feColorMatrix
         in="SourceAlpha"
         type="matrix"
         values="0 0 0 0 0 0 0 0 0 0 0 0 0 0 0 0 0 0 127 0"
         result="hardAlpha"
         id="feColorMatrix104" />
      <feOffset
         dx="23.814"
         dy="23.814"
         id="feOffset106" />
      <feGaussianBlur
         stdDeviation="23.814"
         id="feGaussianBlur108" />
      <feComposite
         in2="hardAlpha"
         operator="out"
         id="feComposite110" />
      <feColorMatrix
         type="matrix"
         values="0 0 0 0 0.0980392 0 0 0 0 0.258824 0 0 0 0 0.584314 0 0 0 0.4 0"
         id="feColorMatrix112" />
      <feBlend
         mode="normal"
         in2="BackgroundImageFix"
         result="effect1_dropShadow_78_698"
         id="feBlend114" />
      <feBlend
         mode="normal"
         in="SourceGraphic"
         in2="effect1_dropShadow_78_698"
         result="shape"
         id="feBlend116" />
    </filter>
    <filter
       id="filter5_d_78_698"
       x="248.344"
       y="396.895"
       width="424.992"
       height="424.992"
       filterUnits="userSpaceOnUse"
       color-interpolation-filters="sRGB">
      <feFlood
         flood-opacity="0"
         result="BackgroundImageFix"
         id="feFlood119" />
      <feColorMatrix
         in="SourceAlpha"
         type="matrix"
         values="0 0 0 0 0 0 0 0 0 0 0 0 0 0 0 0 0 0 127 0"
         result="hardAlpha"
         id="feColorMatrix121" />
      <feOffset
         dx="23.814"
         dy="23.814"
         id="feOffset123" />
      <feGaussianBlur
         stdDeviation="23.814"
         id="feGaussianBlur125" />
      <feComposite
         in2="hardAlpha"
         operator="out"
         id="feComposite127" />
      <feColorMatrix
         type="matrix"
         values="0 0 0 0 0.0980392 0 0 0 0 0.258824 0 0 0 0 0.584314 0 0 0 0.4 0"
         id="feColorMatrix129" />
      <feBlend
         mode="normal"
         in2="BackgroundImageFix"
         result="effect1_dropShadow_78_698"
         id="feBlend131" />
      <feBlend
         mode="normal"
         in="SourceGraphic"
         in2="effect1_dropShadow_78_698"
         result="shape"
         id="feBlend133" />
    </filter>
    <filter
       id="filter6_i_78_698"
       x="95.2559"
       y="95.2559"
       width="833.488"
       height="833.488"
       filterUnits="userSpaceOnUse"
       color-interpolation-filters="sRGB">
      <feFlood
         flood-opacity="0"
         result="BackgroundImageFix"
         id="feFlood136" />
      <feBlend
         mode="normal"
         in="SourceGraphic"
         in2="BackgroundImageFix"
         result="shape"
         id="feBlend138" />
      <feColorMatrix
         in="SourceAlpha"
         type="matrix"
         values="0 0 0 0 0 0 0 0 0 0 0 0 0 0 0 0 0 0 127 0"
         result="hardAlpha"
         id="feColorMatrix140" />
      <feOffset
         id="feOffset142" />
      <feGaussianBlur
         stdDeviation="35.7209"
         id="feGaussianBlur144" />
      <feComposite
         in2="hardAlpha"
         operator="arithmetic"
         k2="-1"
         k3="1"
         id="feComposite146" />
      <feColorMatrix
         type="matrix"
         values="0 0 0 0 1 0 0 0 0 1 0 0 0 0 1 0 0 0 0.9 0"
         id="feColorMatrix148" />
      <feBlend
         mode="normal"
         in2="shape"
         result="effect1_innerShadow_78_698"
         id="feBlend150" />
    </filter>
    <radialGradient
       id="paint0_radial_78_698"
       cx="0"
       cy="0"
       r="1"
       gradientUnits="userSpaceOnUse"
       gradientTransform="matrix(101.20962,-1256.1894,1440.0736,116.02494,464.369,1024)">
      <stop
         stop-color="#262A8F"
         id="stop153" />
      <stop
         offset="0.838542"
         stop-color="#006F9E"
         id="stop155" />
    </radialGradient>
    <linearGradient
       id="paint1_linear_78_698"
       x1="413.751"
       y1="238.388"
       x2="514.785"
       y2="339.422"
       gradientUnits="userSpaceOnUse">
      <stop
         stop-color="white"
         id="stop158" />
      <stop
         offset="1"
         stop-color="white"
         stop-opacity="0.51"
         id="stop160" />
    </linearGradient>
    <linearGradient
       id="paint2_linear_78_698"
       x1="666.334"
       y1="255.227"
       x2="767.368"
       y2="356.261"
       gradientUnits="userSpaceOnUse">
      <stop
         stop-color="white"
         stop-opacity="0.71"
         id="stop163" />
      <stop
         offset="0.496895"
         stop-color="white"
         stop-opacity="0.78"
         id="stop165" />
      <stop
         offset="1"
         stop-color="white"
         stop-opacity="0.64"
         id="stop167" />
    </linearGradient>
    <linearGradient
       id="paint3_linear_78_698"
       x1="346.396"
       y1="616.666"
       x2="346.396"
       y2="735.736"
       gradientUnits="userSpaceOnUse">
      <stop
         stop-color="white"
         id="stop170" />
      <stop
         offset="1"
         stop-color="white"
         stop-opacity="0.44"
         id="stop172" />
    </linearGradient>
    <linearGradient
       id="paint4_linear_78_698"
       x1="607.396"
       y1="377.783"
       x2="845.535"
       y2="377.783"
       gradientUnits="userSpaceOnUse">
      <stop
         stop-color="white"
         id="stop175" />
      <stop
         offset="1"
         stop-color="white"
         stop-opacity="0.51"
         id="stop177" />
    </linearGradient>
    <linearGradient
       id="paint5_linear_78_698"
       x1="683.18"
       y1="507.811"
       x2="784.214"
       y2="608.845"
       gradientUnits="userSpaceOnUse">
      <stop
         stop-color="white"
         id="stop180" />
      <stop
         offset="1"
         stop-color="white"
         stop-opacity="0.51"
         id="stop182" />
    </linearGradient>
    <radialGradient
       id="paint6_radial_78_698"
       cx="0"
       cy="0"
       r="1"
       gradientUnits="userSpaceOnUse"
       gradientTransform="matrix(-134.71233,134.71233,-286.26299,-286.26299,540.051,482.553)">
      <stop
         offset="0.249811"
         stop-color="white"
         id="stop185" />
      <stop
         offset="1"
         stop-color="white"
         stop-opacity="0.83"
         id="stop187" />
    </radialGradient>
    <radialGradient
       id="paint7_radial_78_698"
       cx="0"
       cy="0"
       r="1"
       gradientUnits="userSpaceOnUse"
       gradientTransform="matrix(773.95274,631.06976,-631.06976,773.95274,142.884,226.233)">
      <stop
         offset="0.158009"
         stop-color="white"
         stop-opacity="0.59"
         id="stop190" />
      <stop
         offset="0.922991"
         stop-color="white"
         stop-opacity="0.01"
         id="stop192" />
    </radialGradient>
    <clipPath
       id="clip0_78_698">
      <rect
         width="1024"
         height="1024"
         fill="white"
         id="rect195" />
    </clipPath>
  </defs>
</svg>
